<svg xmlns="http://www.w3.org/2000/svg" width="90" height="100" viewBox="0 0 90 100">
  <path id="circle-question-solid" d="M45,0C20.145,0,0,22.383,0,50s20.145,50,45,50S90,77.617,90,50,69.855,0,45,0Zm0,78.125c-3.164,0-5.625-2.734-5.625-6.25s2.3-6.25,5.625-6.25c3.006,0,5.625,2.734,5.625,6.25S48.006,78.125,45,78.125ZM57.146,50.391l-7.928,5.469v.391A4.534,4.534,0,0,1,45,60.938a4.534,4.534,0,0,1-4.219-4.687V53.125a4.953,4.953,0,0,1,2.109-4.1l10.02-6.641a4.386,4.386,0,0,0-2.092-8.008H41.836a4.032,4.032,0,0,0-3.867,4.3,4.534,4.534,0,0,1-4.219,4.688,4.534,4.534,0,0,1-4.219-4.688C29.531,31.055,34.98,25,41.678,25H50.66c7.172,0,12.621,6.055,12.621,13.672A14.06,14.06,0,0,1,57.146,50.391Z" fill="#f86629"/>
</svg>
