<svg xmlns="http://www.w3.org/2000/svg" width="80" height="110" viewBox="0 0 80 110">
  <path id="clipboard-list-solid" d="M70,13.75H58.775A20,20,0,0,0,40,0,19.993,19.993,0,0,0,21.229,13.75H10A10.16,10.16,0,0,0,0,24.063V99.688A10.162,10.162,0,0,0,10,110H70A10.16,10.16,0,0,0,80,99.688V24.063A10.16,10.16,0,0,0,70,13.75ZM20,84.219a5.159,5.159,0,1,1,5-5.156A5.081,5.081,0,0,1,20,84.219Zm0-20.625a5.159,5.159,0,1,1,5-5.156A5.081,5.081,0,0,1,20,63.594ZM40,13.75A6.878,6.878,0,0,1,40,27.5a6.77,6.77,0,0,1-6.667-6.875A6.77,6.77,0,0,1,40,13.75ZM63.333,82.5H36.667a3.439,3.439,0,0,1,0-6.875H63.333a3.439,3.439,0,0,1,0,6.875Zm0-20.625H36.667a3.439,3.439,0,0,1,0-6.875H63.333a3.439,3.439,0,0,1,0,6.875Z" fill="#f86629"/>
</svg>
