<svg xmlns="http://www.w3.org/2000/svg" xmlns:xlink="http://www.w3.org/1999/xlink" width="566" height="513" viewBox="0 0 566 513">
  <defs>
    <clipPath id="clip-FondoImagenPortada">
      <rect width="566" height="513"/>
    </clipPath>
  </defs>
  <g id="FondoImagenPortada" clip-path="url(#clip-FondoImagenPortada)">
    <rect width="566" height="513" fill="#fff"/>
    <rect id="Rectángulo_121" data-name="Rectángulo 121" width="400" height="400" transform="matrix(0.719, -0.695, 0.695, 0.719, 308.885, 250.217)" fill="#25a6b5"/>
    <rect id="Rectángulo_122" data-name="Rectángulo 122" width="120" height="120" transform="translate(-1)" fill="#99b525"/>
  </g>
</svg>
