<svg xmlns="http://www.w3.org/2000/svg" width="90" height="90" viewBox="0 0 90 90">
  <path id="list-check-solid" d="M26.736,33.281a5.675,5.675,0,0,1,.3,7.062L14.386,57.018a3.36,3.36,0,0,1-3.025,1.458,3.061,3.061,0,0,1-3.094-1.458L1.236,48.685a5.418,5.418,0,0,1,0-6.89,3.771,3.771,0,0,1,5.966,0l3.887,4.6,9.689-12.742a3.775,3.775,0,0,1,5.959-.371Zm0,33.341a5.674,5.674,0,0,1,.3,7.062L14.386,90.351a3.36,3.36,0,0,1-3.025,1.458,3.061,3.061,0,0,1-3.094-1.458L1.236,82.018a5.427,5.427,0,0,1,0-6.9,3.789,3.789,0,0,1,5.966,0l3.887,4.6,9.689-12.75a3.777,3.777,0,0,1,5.959-.354ZM39.375,45.331c0-3.681,2.514-6.667,5.625-6.667H84.375c3.111,0,5.625,2.985,5.625,6.667S87.486,52,84.375,52H45c-3.111,0-5.625-2.979-5.625-6.667Zm0,33.333C39.375,74.976,41.889,72,45,72H84.375C87.486,72,90,74.976,90,78.664s-2.514,6.667-5.625,6.667H45C41.889,85.33,39.375,82.351,39.375,78.664ZM28.125,112c0-3.687,2.514-6.667,5.625-6.667H84.375C87.486,105.33,90,108.309,90,112s-2.514,6.667-5.625,6.667H33.75C30.639,118.663,28.125,115.684,28.125,112ZM0,112c0-5.521,3.778-10,8.438-10s8.438,4.479,8.438,10S13.1,122,8.438,122,0,117.518,0,112Z" transform="translate(0 -31.997)" fill="#fff"/>
</svg>
