<svg xmlns="http://www.w3.org/2000/svg" xmlns:xlink="http://www.w3.org/1999/xlink" width="1295" height="479" viewBox="0 0 1295 479">
  <defs>
    <linearGradient id="linear-gradient" x1="0.743" y1="1" x2="0.447" y2="1" gradientUnits="objectBoundingBox">
      <stop offset="0" stop-color="#01e4ff" stop-opacity="0"/>
      <stop offset="1" stop-color="#25a6b5"/>
    </linearGradient>
  </defs>
  <rect id="Rectángulo_158" data-name="Rectángulo 158" width="1295" height="479" rx="7" opacity="0.93" fill="url(#linear-gradient)"/>
</svg>
